-------------------------------------------------------------------------------
Test set: com.epam.rd.java.basic.task8.TaskTest
-------------------------------------------------------------------------------
Tests run: 5, Failures: 0, Errors: 0, Skipped: 0, Time elapsed: 1.277 s - in com.epam.rd.java.basic.task8.TaskTest
